# throughput (cps) 
1465374393248 1304 1.533742
1465374394552 21921 0.045618
1465374416473 1004 119.521912
1465374417477 1330 22.556391
1465374418807 1103 59.836809
1465374419910 1009 22.794846
1465374420919 1032 19.379845
1465374421951 1040 40.384615
1465374422991 1073 78.285182
1465374424064 1287 24.087024
1465374425351 1003 57.826520
1465374426354 1353 44.345898
1465374427707 1011 28.684471
1465374428718 1016 76.771654
1465374429734 1057 28.382214
1465374430791 1055 45.497630
1465374431846 1035 38.647343
1465374432881 1007 86.395233
1465374433888 1084 28.597786
1465374434972 1006 88.469185
1465374435978 1055 36.966825
1465374437033 1002 28.942116
1465374438035 1034 53.191489
1465374439069 1115 40.358744
1465374440184 1087 64.397424
1465374441271 1011 89.020772
1465374442282 1010 49.504950
1465374443292 1039 76.997113
1465374444331 1002 40.918164
1465374445333 1067 71.227741
1465374446400 1013 54.294176
1465374447413 1014 42.406312
1465374448427 1029 80.660836
1465374449456 1040 32.692308
1465374450496 1017 60.963618
1465374451513 1043 37.392138
1465374452556 1060 27.358491
1465374453616 1045 45.933014
1465374454661 1004 35.856574
1465374455665 1244 67.524116
1465374456909 1014 29.585799
1465374457923 1015 61.083744
1465374458938 1033 37.754114
1465374459971 1006 84.493042
1465374460977 1057 53.926206
1465374462034 1019 24.533857
1465374463053 1007 47.666336
1465374464060 1034 49.323017
1465374465094 1048 45.801527
1465374466142 1183 65.088757
1465374467325 1010 122.772277
1465374468335 1001 22.977023
1465374469336 1050 70.476190
1465374470386 1001 117.882118
1465374471387 1069 88.868101
1465374472456 1100 34.545455
1465374473556 1163 97.162511
1465374474719 1542 68.093385
1465374476261 1066 42.213884
1465374477327 1300 73.846154
1465374478627 1491 59.020791
1465374480118 1267 46.566693
1465374481385 1006 72.564612
1465374482391 1315 58.555133
1465374483706 1123 73.018700
1465374484829 1249 91.273018
1465374486078 1009 83.250743
1465374487087 1004 39.840637
1465374488091 1002 95.808383
1465374489093 1001 78.921079
1465374490094 1018 103.143418
1465374491112 1003 87.736790
1465374492115 1089 33.976125
1465374493204 1017 53.097345
1465374494221 1189 79.899075
1465374495410 1102 37.205082
1465374496512 1078 75.139147
1465374497590 1010 64.356436
1465374498600 1001 54.945055
1465374499601 1001 118.881119
1465374500602 1077 38.068709
1465374501679 1004 56.772908
1465374502683 1048 77.290076
1465374503731 1005 44.776119
1465374504736 1017 60.963618
1465374505753 1034 47.388781
1465374506787 1126 53.285968
1465374507913 1001 54.945055
1465374508914 1214 50.247117
1465374510128 1111 22.502250
1465374511239 1339 60.492905
1465374512578 1030 64.077670
1465374513608 1021 77.375122
1465374514629 1107 46.070461
1465374515736 1039 32.723773
1465374516775 1094 36.563071
1465374517869 1001 57.942058
1465374518870 1002 62.874251
1465374519872 1008 45.634921
1465374520880 1154 20.797227
1465374522034 1136 87.147887
1465374523170 1059 60.434372
1465374524229 1198 27.545910
1465374525427 1018 60.903733
1465374526445 1019 33.366045
1465374527464 1011 66.271019
1465374528475 1026 69.200780
1465374529501 1130 68.141593
1465374530631 1003 75.772682
1465374531634 1019 54.955839
1465374532653 1004 40.836653
1465374533657 1089 59.687787
1465374534746 1069 26.192703
1465374535815 1001 51.948052
1465374536816 1005 42.786070
1465374537821 1061 86.710650
1465374538882 1005 74.626866
1465374539887 1029 61.224490
1465374540916 1195 56.066946
1465374542111 1222 49.099836
1465374543333 1042 33.589251
1465374544375 1115 31.390135
1465374545490 1015 42.364532
1465374546505 1069 62.675398
1465374547574 1109 51.397656
1465374548683 1033 85.188771
1465374549716 1169 29.940120
1465374550885 1117 76.991943
1465374552002 1076 23.234201
1465374553078 1097 51.959891
1465374554175 1070 27.102804
1465374555245 1061 76.343073
1465374556306 1040 30.769231
1465374557346 1004 19.920319
1465374558350 1079 50.046339
1465374559429 1029 33.041788
1465374560458 1313 62.452399
1465374561771 1001 37.962038
1465374562772 1031 32.007759
1465374563803 1052 60.836502
1465374564855 1010 48.514851
1465374565865 1067 44.985942
1465374566932 1007 50.645482
1465374567939 1066 67.542214
1465374569005 1032 42.635659
1465374570037 1013 54.294176
1465374571050 1022 76.320939
1465374572072 1018 21.611002
