{
  "partitions": [
    {
      "id": 1,
      "servers": [
        15,16
      ],
      "type": "PARTITION"
    },
    {
      "id": 2,
      "servers": [
        17,18
      ],
      "type": "PARTITION"
    },
    {
      "id": 3,
      "servers": [
        19,20
      ],
      "type": "ORACLE"
    }
  ]
}