# latency client_conservative_post 55
# latency (ns) 
# average: 0 0 26000248.709664
1469542065389 151 102102307.000000
1469542066393 498 28311479.184739
1469542067394 708 20079799.826271
1469542068397 567 24782187.474427
1469542069399 625 22395182.033600
1469542070399 685 20597502.491971
1469542071409 448 30904185.401786
1469542072427 166 80907663.072289
1469542073462 140 102841454.200000
1469542074432 270 53469636.711111
1469542075438 228 60462913.802632
1469542076445 415 35117590.469879
1469542077448 701 20227958.510699
1469542078450 963 14523340.275182
1469542079451 550 25156527.345455
1469542080455 195 71540907.723077
1469542081493 428 34356670.165888
1469542082487 816 17239636.587010
1469542083490 960 14643360.095833
1469542084491 796 17628684.650754
1469542085498 268 51369188.947761
1469542086519 288 48785158.645833
1469542087503 510 27903833.105882
1469542088502 656 21375441.361280
1469542089511 894 15710033.229307
1469542090510 849 16581528.309776
1469542091514 715 19557370.078322
1469542092514 536 26089098.763060
1469542093517 563 24947565.067496
1469542094519 595 23680430.156303
1469542095523 688 20318734.864826
1469542096525 686 20432790.841108
1469542097526 650 21658119.360000
1469542098530 637 21824935.670330
1469542099536 560 25327062.364286
1469542100541 586 23967740.843003
1469542101540 659 21197307.606980
1469542102544 525 26454589.582857
1469542103543 424 32907233.396226
1469542104546 367 38169163.991826
1469542105563 227 61124937.889868
1469542106610 180 83038256.922222
1469542107617 594 24014519.188552
1469542108620 558 25011003.141577
1469542109616 467 29833638.614561
1469542110618 544 25998371.878677
1469542111620 706 19868571.128895
1469542112629 783 17901845.061303
