# throughput client_conservative_overall 46
# throughput (cps) 
# average: 0 0 576.138766
1469542065373 1002 857.285429
1469542066375 1003 652.043868
1469542067378 1007 327.706058
1469542068385 1002 575.848303
1469542069387 1001 535.464535
1469542070388 1002 539.920160
1469542071390 1002 613.772455
1469542072392 1004 913.346614
1469542073396 1001 937.062937
1469542074397 1001 841.158841
1469542075398 1002 799.401198
1469542076400 1001 540.459540
1469542077401 1009 484.638256
1469542078410 1002 164.670659
1469542079412 1002 502.994012
1469542080414 1008 891.865079
1469542081422 1004 725.099602
1469542082426 1023 270.772239
1469542083449 1005 112.437811
1469542084454 1015 301.477833
1469542085469 1001 802.197802
1469542086470 1004 800.796813
1469542087474 1002 628.742515
1469542088476 1013 505.429418
1469542089489 1049 186.844614
1469542090538 1004 219.123506
1469542091542 1003 456.630110
1469542092545 1002 576.846307
1469542093547 1001 604.395604
1469542094548 1017 548.672566
1469542095565 1002 482.035928
1469542096567 1001 466.533467
1469542097568 1005 531.343284
1469542098573 1003 604.187438
1469542099576 1019 629.048086
1469542100595 1001 554.445554
1469542101596 1001 569.430569
1469542102597 1006 620.278330
1469542103603 1001 655.344655
1469542104604 1001 775.224775
1469542105605 1001 868.131868
1469542106606 1003 836.490528
1469542107609 1008 504.960317
1469542108617 1002 595.808383
1469542109619 1001 671.328671
1469542110620 1002 617.764471
1469542111622 1003 458.624128
1469542112625 1002 327.345309
