# throughput client_conservative_overall 43
# throughput (cps) 
# average: 0 0 537.206699
1469542065300 1005 121.393035
1469542066305 1003 497.507478
1469542067308 1001 678.321678
1469542068309 1001 602.397602
1469542069310 1001 628.371628
1469542070311 1001 689.310689
1469542071312 1013 479.763080
1469542072325 1014 167.652860
1469542073339 1003 140.578265
1469542074342 1006 285.288270
1469542075348 1015 219.704433
1469542076363 1003 404.785643
1469542077366 1003 682.951147
1469542078369 1002 941.117764
1469542079371 1004 601.593625
1469542080375 1047 201.528176
1469542081422 1002 439.121756
1469542082424 1004 795.816733
1469542083428 1001 932.067932
1469542084429 1002 809.381238
1469542085431 1005 286.567164
1469542086436 1013 282.329714
1469542087449 1002 509.980040
1469542088451 1002 677.644711
1469542089453 1001 866.133866
1469542090454 1001 877.122877
1469542091455 1002 699.600798
1469542092457 1002 569.860279
1469542093459 1001 522.477522
1469542094460 1002 565.868263
1469542095462 1002 660.678643
1469542096464 1002 664.670659
1469542097466 1001 642.357642
1469542098467 1006 634.194831
1469542099473 1003 552.342971
1469542100476 1006 565.606362
1469542101482 1006 652.087475
1469542102488 1003 512.462612
1469542103491 1003 396.809571
1469542104494 1015 378.325123
1469542105509 1005 237.810945
1469542106514 1016 152.559055
1469542107530 1002 562.874251
1469542108532 1006 566.600398
1469542109538 1001 497.502498
1469542110539 1002 526.946108
1469542111541 1002 680.638723
1469542112543 1001 764.235764
