2016-05-30 16:43:44,040 INFO Starting client: ['./deployClient.py', '1', 'minimal', '1', 'localhost', '60000', '/Users/longle/tmp', '120', '20']
Client 1: CONNECTED
Client 1: CONNECTED
Client 1: CONNECTED
[CLIENT] loading sample data...
[CLIENT] Data loaded, takes 8713
Client 1 is starting
Init benchmark on client
16:43:58.024 [INFO ] - Term-00, 
16:43:58.025 [INFO ] - Term-00, +-------------------------------------------------------------+
16:43:58.025 [INFO ] - Term-00,      BenchmarkSQL v4.1.1
16:43:58.025 [INFO ] - Term-00, +-------------------------------------------------------------+
16:43:58.025 [INFO ] - Term-00, 
16:43:58.025 [INFO ] - Term-00, 
16:43:58.026 [INFO ] - Term-00, runTxnsPerTerminal=10
16:43:58.026 [INFO ] - Term-00, 
16:43:58.026 [INFO ] - Term-00, 
16:43:58.026 [INFO ] - Term-00, Session started!
16:43:58.026 [INFO ] - Term-00, Creating 1 terminal(s) with 10 transaction(s) per terminal...
16:43:58.026 [INFO ] - Term-00, Transaction Weights: 0% New-Order, 100% Payment, 0% Order-Status, 0% Delivery, 0% Stock-Level
16:43:58.026 [INFO ] - Term-00, Number of Terminals	1
16:43:58.033 [DEBUG] - Term-01, 
16:43:58.033 [DEBUG] - Term-01, Terminal 'Term-01' has WarehouseID=1 and DistrictID=2.
16:43:58.033 [INFO ] - Term-00, Term-01	1
16:43:58.033 [INFO ] - Term-00, Transaction	Weight
16:43:58.033 [INFO ] - Term-00, % New-Order	0
16:43:58.033 [INFO ] - Term-00, % Payment	100
16:43:58.034 [INFO ] - Term-00, % Order-Status	0
16:43:58.034 [INFO ] - Term-00, % Delivery	0
16:43:58.034 [INFO ] - Term-00, % Stock-Level	0
16:43:58.034 [INFO ] - Term-00, Transaction Number	Terminal	Type	Execution Time (ms)		Comment
16:43:58.034 [INFO ] - Term-00, Created 1 terminal(s) successfully!
16:43:58.034 [INFO ] - Term-00, Starting all terminals...
16:43:58.034 [INFO ] - Term-00, All terminals started executing 2016-05-30 16:43:58
16:43:58.034 [DEBUG] - Term-01, Executing 10 transactions...
16:43:58.036 [DEBUG] - Term-01, Last name lookup = CALLYCALLYABLE
16:43:58.036 [DEBUG] - Term-01, 
16:43:58.036 [DEBUG] - Term-01, Starting transaction #2 (Payment)...
16:43:58.536 [DEBUG] - 1- All object caches are available. try to send command directly
16:43:58.541 [DEBUG] - no move needed
16:43:58.544 [DEBUG] - 1- >>>> Sending command [UPDATE, [(Warehouse:w_id=1)], ch.usi.dslab.lel.dsqldb.DSqlCommandPayload@2998b9c6] to actual partition [1]
16:43:59.675 [DEBUG] - 1- Try to update internal cache from command result
16:43:59.680 [DEBUG] - 1- >>>> Sending command [READ, (Warehouse:w_id=1)] to actual partition [1]
16:43:59.688 [DEBUG] - 1- Try to update internal cache from command result
16:43:59.688 [DEBUG] - 1- All object caches are available. try to send command directly
16:43:59.688 [DEBUG] - no move needed
16:43:59.689 [DEBUG] - 1- >>>> Sending command [UPDATE, [(District:d_id=2:d_w_id=1)], ch.usi.dslab.lel.dsqldb.DSqlCommandPayload@3753746] to actual partition [2]
16:43:59.786 [DEBUG] - 1- Try to update internal cache from command result
16:43:59.787 [DEBUG] - 1- >>>> Sending command [READ, (District:d_id=2:d_w_id=1)] to actual partition [2]
16:43:59.802 [DEBUG] - 1- Try to update internal cache from command result
16:43:59.910 [DEBUG] - 1 - try to update internal cache from query
16:43:59.912 [DEBUG] - 1- All object caches are available. try to send command directly
16:43:59.913 [DEBUG] - no move needed
16:43:59.918 [DEBUG] - 1 - try to update internal cache from query
16:43:59.920 [DEBUG] - 1- All object caches are available. try to send command directly
16:43:59.920 [DEBUG] - no move needed
16:43:59.940 [DEBUG] - 1 - try to update internal cache from query
16:43:59.941 [DEBUG] - 1- All object caches are available. try to send command directly
16:43:59.941 [DEBUG] - no move needed
16:43:59.955 [DEBUG] - 1 - try to update internal cache from query
16:43:59.962 [DEBUG] - 1- Get object (Customer:c_id=51:c_d_id=2:c_w_id=1:c_last=ATIONBARPRI) location from Oracle: 1
16:43:59.963 [DEBUG] - 1- All object caches are available. try to send command directly
16:43:59.963 [DEBUG] - no move needed
16:43:59.963 [DEBUG] - 1- >>>> Sending command [READ_BATCH, [(Customer:c_id=51:c_d_id=2:c_w_id=1:c_last=ATIONBARPRI)]] to actual partition [1]
16:43:59.995 [DEBUG] - 1- Try to update internal cache from command result
16:43:59.998 [DEBUG] - 1- All object caches are available. try to send command directly
16:43:59.998 [DEBUG] - no move needed
16:43:59.998 [DEBUG] - 1- >>>> Sending command [UPDATE, [(Customer:c_id=51:c_d_id=2:c_w_id=1:c_last=ATIONBARPRI)], ch.usi.dslab.lel.dsqldb.DSqlCommandPayload@262b4cc4] to actual partition [1]
16:44:00.008 [DEBUG] - 1- Try to update internal cache from command result
16:44:00.016 [DEBUG] - 1 - try to update internal cache from query
16:44:00.017 [DEBUG] - 1- Get object (History:h_c_id=2:h_c_d_id=2:h_c_w_id=1) location from Oracle: 2
16:44:00.017 [DEBUG] - 1- >>>> Sending command [CREATE, (History:h_c_id=2:h_c_d_id=2:h_c_w_id=1), next = ch.usi.dslab.lel.dsqldb.DSqlCommandPayload@7910e831] to actual partition [2]
16:44:00.068 [DEBUG] - 1- Try to update internal cache from command result
16:44:00.068 [DEBUG] - Term-01, Succesful INSERT into history table
16:44:00.068 [DEBUG] - Term-01, +---------------------------- PAYMENT ----------------------------+
16:44:00.068 [DEBUG] - Term-01,  Date: 2016-05-30 16:44:00
16:44:00.069 [DEBUG] - Term-01,  
16:44:00.069 [DEBUG] - Term-01,  Warehouse: 1
16:44:00.069 [DEBUG] - Term-01,    Street:  belrtBXgLRsRfCfw
16:44:00.069 [DEBUG] - Term-01,    Street:  LOqAcUWiquFabopRk
16:44:00.069 [DEBUG] - Term-01,    City:    RvXcxMboEhSxCTSuj   State: QK  Zip: 123456
16:44:00.069 [DEBUG] - Term-01,  
16:44:00.069 [DEBUG] - Term-01,  District:  2
16:44:00.069 [DEBUG] - Term-01,    Street:  LNiwXoqtUPllmbAo
16:44:00.069 [DEBUG] - Term-01,    Street:  IRkikVHduODp
16:44:00.069 [DEBUG] - Term-01,    City:    vsaLRIJkTmbMpjjOco   State: AD  Zip: 12345678
16:44:00.069 [DEBUG] - Term-01,  
16:44:00.069 [DEBUG] - Term-01,  Customer:  51
16:44:00.069 [DEBUG] - Term-01,    Name:    VzWBdqVi OE CALLYCALLYABLE
16:44:00.069 [DEBUG] - Term-01,    Street:  icxoLlwBXi
16:44:00.069 [DEBUG] - Term-01,    Street:  gpPIwXoiCLxwKX
16:44:00.069 [DEBUG] - Term-01,    City:    kLjZfoqpYyxPIc   State: EH  Zip: 123456789
16:44:00.069 [DEBUG] - Term-01, 
16:44:00.069 [DEBUG] - Term-01,    Since:   1462954968762
16:44:00.069 [DEBUG] - Term-01,    Credit:  GC
16:44:00.069 [DEBUG] - Term-01,    %Disc:   0.21279999613761902
16:44:00.070 [DEBUG] - Term-01,    Phone:   (732)744-1700
16:44:00.070 [DEBUG] - Term-01,  
16:44:00.070 [DEBUG] - Term-01,  Amount Paid:      487.8
16:44:00.070 [DEBUG] - Term-01,  Credit Limit:     50000
16:44:00.070 [DEBUG] - Term-01,  New Cust-Balance: -10.0
16:44:00.070 [DEBUG] - Term-01, +-----------------------------------------------------------------+
Payment :: 2035
transaction-start : 2
update-warehouse : 1639
read-warehouse : 12
update-district : 98
read-district : 16
get-customer-by-name : 110
get-customer-by-name : 7
get-customer-by-name : 21
get-customer-by-name : 55
found-customer : 3
update-customer : 11
create-history : 59
transaction-end : 2

16:44:00.070 [DEBUG] - Term-01, Last name lookup = ESEBARCALLY
16:44:00.070 [DEBUG] - Term-01, 
16:44:00.070 [DEBUG] - Term-01, Starting transaction #3 (Payment)...
16:44:00.071 [DEBUG] - 1- All object caches are available. try to send command directly
16:44:00.071 [DEBUG] - no move needed
16:44:00.071 [DEBUG] - 1- >>>> Sending command [UPDATE, [(Warehouse:w_id=1)], ch.usi.dslab.lel.dsqldb.DSqlCommandPayload@56dcc6ba] to actual partition [1]
16:44:00.092 [DEBUG] - 1- Try to update internal cache from command result
16:44:00.092 [DEBUG] - 1- >>>> Sending command [READ, (Warehouse:w_id=1)] to actual partition [1]
16:44:00.125 [DEBUG] - 1- Try to update internal cache from command result
16:44:00.125 [DEBUG] - 1- All object caches are available. try to send command directly
16:44:00.125 [DEBUG] - no move needed
16:44:00.125 [DEBUG] - 1- >>>> Sending command [UPDATE, [(District:d_id=2:d_w_id=1)], ch.usi.dslab.lel.dsqldb.DSqlCommandPayload@6c114a52] to actual partition [2]
16:44:00.143 [DEBUG] - 1- Try to update internal cache from command result
16:44:00.143 [DEBUG] - 1- >>>> Sending command [READ, (District:d_id=2:d_w_id=1)] to actual partition [2]
16:44:00.147 [DEBUG] - 1- Try to update internal cache from command result
16:44:00.156 [DEBUG] - 1 - try to update internal cache from query
16:44:00.156 [DEBUG] - 1- All object caches are available. try to send command directly
16:44:00.156 [DEBUG] - no move needed
16:44:00.167 [DEBUG] - 1 - try to update internal cache from query
16:44:00.168 [DEBUG] - 1- All object caches are available. try to send command directly
16:44:00.168 [DEBUG] - no move needed
16:44:00.175 [DEBUG] - 1 - try to update internal cache from query
16:44:00.186 [DEBUG] - 1- All object caches are available. try to send command directly
16:44:00.186 [DEBUG] - no move needed
16:44:00.190 [DEBUG] - 1 - try to update internal cache from query
16:44:00.191 [DEBUG] - 1- All object caches are available. try to send command directly
16:44:00.191 [DEBUG] - no move needed
16:44:00.194 [DEBUG] - 1 - try to update internal cache from query
16:44:00.195 [DEBUG] - 1- All object caches are available. try to send command directly
16:44:00.195 [DEBUG] - no move needed
16:44:00.198 [DEBUG] - 1 - try to update internal cache from query
16:44:00.198 [DEBUG] - 1- All object caches are available. try to send command directly
16:44:00.198 [DEBUG] - no move needed
16:44:00.201 [DEBUG] - 1 - try to update internal cache from query
16:44:00.203 [DEBUG] - 1- All object caches are available. try to send command directly
16:44:00.203 [DEBUG] - no move needed
16:44:00.207 [DEBUG] - 1 - try to update internal cache from query
16:44:00.207 [DEBUG] - 1- All object caches are available. try to send command directly
16:44:00.207 [DEBUG] - no move needed
16:44:00.210 [DEBUG] - 1 - try to update internal cache from query
16:44:00.211 [DEBUG] - 1- All object caches are available. try to send command directly
16:44:00.211 [DEBUG] - no move needed
16:44:00.214 [DEBUG] - 1 - try to update internal cache from query
16:44:00.214 [DEBUG] - 1- All object caches are available. try to send command directly
16:44:00.214 [DEBUG] - no move needed
16:44:00.217 [DEBUG] - 1 - try to update internal cache from query
16:44:00.218 [DEBUG] - 1- All object caches are available. try to send command directly
16:44:00.218 [DEBUG] - no move needed
16:44:00.221 [DEBUG] - 1 - try to update internal cache from query
16:44:00.221 [DEBUG] - 1- All object caches are available. try to send command directly
16:44:00.221 [DEBUG] - no move needed
16:44:00.224 [DEBUG] - 1 - try to update internal cache from query
16:44:00.225 [DEBUG] - 1- All object caches are available. try to send command directly
16:44:00.225 [DEBUG] - no move needed
16:44:00.228 [DEBUG] - 1 - try to update internal cache from query
16:44:00.229 [DEBUG] - 1- All object caches are available. try to send command directly
16:44:00.229 [DEBUG] - no move needed
16:44:00.232 [DEBUG] - 1 - try to update internal cache from query
16:44:00.235 [DEBUG] - 1- Get object (Customer:c_id=93:c_d_id=2:c_w_id=1:c_last=ESEBARANTI) location from Oracle: 2
16:44:00.235 [DEBUG] - 1- All object caches are available. try to send command directly
16:44:00.235 [DEBUG] - no move needed
16:44:00.235 [DEBUG] - 1- >>>> Sending command [READ_BATCH, [(Customer:c_id=93:c_d_id=2:c_w_id=1:c_last=ESEBARANTI)]] to actual partition [2]
16:44:00.302 [DEBUG] - 1- Try to update internal cache from command result
16:44:00.303 [DEBUG] - 1- All object caches are available. try to send command directly
16:44:00.303 [DEBUG] - no move needed
16:44:00.303 [DEBUG] - 1- >>>> Sending command [UPDATE, [(Customer:c_id=93:c_d_id=2:c_w_id=1:c_last=ESEBARANTI)], ch.usi.dslab.lel.dsqldb.DSqlCommandPayload@5cca7f61] to actual partition [2]
16:44:00.327 [DEBUG] - 1- Try to update internal cache from command result
16:44:00.331 [DEBUG] - 1 - try to update internal cache from query
16:44:00.333 [DEBUG] - 1- Get object (History:h_c_id=2:h_c_d_id=2:h_c_w_id=1) location from Oracle: 2
16:44:00.334 [DEBUG] - 1- >>>> Sending command [CREATE, (History:h_c_id=2:h_c_d_id=2:h_c_w_id=1), next = ch.usi.dslab.lel.dsqldb.DSqlCommandPayload@4f3708c2] to actual partition [2]
16:44:00.350 [DEBUG] - 1- Try to update internal cache from command result
16:44:00.350 [DEBUG] - Term-01, Succesful INSERT into history table
16:44:00.350 [DEBUG] - Term-01, +---------------------------- PAYMENT ----------------------------+
16:44:00.350 [DEBUG] - Term-01,  Date: 2016-05-30 16:44:00
16:44:00.350 [DEBUG] - Term-01,  
16:44:00.350 [DEBUG] - Term-01,  Warehouse: 1
16:44:00.350 [DEBUG] - Term-01,    Street:  belrtBXgLRsRfCfw
16:44:00.350 [DEBUG] - Term-01,    Street:  LOqAcUWiquFabopRk
16:44:00.350 [DEBUG] - Term-01,    City:    RvXcxMboEhSxCTSuj   State: QK  Zip: 123456
16:44:00.350 [DEBUG] - Term-01,  
16:44:00.350 [DEBUG] - Term-01,  District:  2
16:44:00.350 [DEBUG] - Term-01,    Street:  LNiwXoqtUPllmbAo
16:44:00.350 [DEBUG] - Term-01,    Street:  IRkikVHduODp
16:44:00.350 [DEBUG] - Term-01,    City:    vsaLRIJkTmbMpjjOco   State: AD  Zip: 12345678
16:44:00.350 [DEBUG] - Term-01,  
16:44:00.350 [DEBUG] - Term-01,  Customer:  93
16:44:00.350 [DEBUG] - Term-01,    Name:    gfYzcPmGf OE ESEBARCALLY
16:44:00.350 [DEBUG] - Term-01,    Street:  VudmsrSKxbQSSqBXibr
16:44:00.351 [DEBUG] - Term-01,    Street:  mihkUkwSaowNueQQbm
16:44:00.351 [DEBUG] - Term-01,    City:    FVFLSvNBuHIcglux   State: VB  Zip: 123456789
16:44:00.351 [DEBUG] - Term-01, 
16:44:00.351 [DEBUG] - Term-01,    Since:   1462954968767
16:44:00.351 [DEBUG] - Term-01,    Credit:  BC
16:44:00.351 [DEBUG] - Term-01,    %Disc:   0.03880000114440918
16:44:00.351 [DEBUG] - Term-01,    Phone:   (732)744-1700
16:44:00.351 [DEBUG] - Term-01,  
16:44:00.351 [DEBUG] - Term-01,  Amount Paid:      3832.67
16:44:00.351 [DEBUG] - Term-01,  Credit Limit:     50000
16:44:00.351 [DEBUG] - Term-01,  New Cust-Balance: -10.0
16:44:00.351 [DEBUG] - Term-01,  Cust-Data: VjKJjDMdEtwaBPqscgYrhCQlAvVxbNDiBrUapsrBKhvdpWECPM            sHkbHcaJsJSrWHnFdrfRjiYRtFqOYvuMzKriIgNEuPAWYEKeko            IRPcnvUaVjRTNQjpnEYgfwPfavVrmgyhZNpEecsZsrzwjMguXr            IfZyELtGBuwRZbKgDBNVRYxmIXkwutLvyZBPCpYpeIBfUeSrBm
16:44:00.351 [DEBUG] - Term-01, +-----------------------------------------------------------------+
Payment :: 281
transaction-start : 0
update-warehouse : 22
read-warehouse : 33
update-district : 18
read-district : 4
get-customer-by-name : 9
get-customer-by-name : 11
get-customer-by-name : 8
get-customer-by-name : 15
get-customer-by-name : 5
get-customer-by-name : 3
get-customer-by-name : 4
get-customer-by-name : 5
get-customer-by-name : 3
get-customer-by-name : 4
get-customer-by-name : 3
get-customer-by-name : 4
get-customer-by-name : 4
get-customer-by-name : 4
get-customer-by-name : 74
found-customer : 0
update-customer : 24
create-history : 23
transaction-end : 1

16:44:00.351 [DEBUG] - Term-01, 
16:44:00.351 [DEBUG] - Term-01, Starting transaction #4 (Payment)...
16:44:00.352 [DEBUG] - 1- All object caches are available. try to send command directly
16:44:00.352 [DEBUG] - no move needed
16:44:00.352 [DEBUG] - 1- >>>> Sending command [UPDATE, [(Warehouse:w_id=1)], ch.usi.dslab.lel.dsqldb.DSqlCommandPayload@7751604a] to actual partition [1]
16:44:00.359 [DEBUG] - 1- Try to update internal cache from command result
16:44:00.359 [DEBUG] - 1- >>>> Sending command [READ, (Warehouse:w_id=1)] to actual partition [1]
16:44:00.367 [DEBUG] - 1- Try to update internal cache from command result
16:44:00.367 [DEBUG] - 1- All object caches are available. try to send command directly
16:44:00.367 [DEBUG] - no move needed
16:44:00.367 [DEBUG] - 1- >>>> Sending command [UPDATE, [(District:d_id=3:d_w_id=1)], ch.usi.dslab.lel.dsqldb.DSqlCommandPayload@4c51ab0d] to actual partition [1]
16:44:00.394 [DEBUG] - 1- Try to update internal cache from command result
16:44:00.394 [DEBUG] - 1- >>>> Sending command [READ, (District:d_id=3:d_w_id=1)] to actual partition [1]
16:44:00.398 [DEBUG] - 1- Try to update internal cache from command result
16:44:00.398 [DEBUG] - 1- >>>> Sending command [READ, (Customer:c_id=77:c_d_id=3:c_w_id=1)] to actual partition [1]
16:44:00.447 [DEBUG] - 1- Try to update internal cache from command result
16:44:00.447 [DEBUG] - 1- All object caches are available. try to send command directly
16:44:00.447 [DEBUG] - no move needed
16:44:00.447 [DEBUG] - 1- >>>> Sending command [UPDATE, [(Customer:c_id=77:c_d_id=3:c_w_id=1:c_last=ATIONPRIANTI)], ch.usi.dslab.lel.dsqldb.DSqlCommandPayload@dad5d7c] to actual partition [1]
16:44:00.485 [DEBUG] - 1- Try to update internal cache from command result
16:44:00.488 [DEBUG] - 1 - try to update internal cache from query
16:44:00.489 [DEBUG] - 1- Get object (History:h_c_id=9:h_c_d_id=9:h_c_w_id=1) location from Oracle: 2
16:44:00.489 [DEBUG] - 1- >>>> Sending command [CREATE, (History:h_c_id=9:h_c_d_id=9:h_c_w_id=1), next = ch.usi.dslab.lel.dsqldb.DSqlCommandPayload@5555dab1] to actual partition [2]
16:44:00.495 [DEBUG] - 1- Try to update internal cache from command result
16:44:00.495 [DEBUG] - Term-01, Succesful INSERT into history table
16:44:00.495 [DEBUG] - Term-01, +---------------------------- PAYMENT ----------------------------+
16:44:00.495 [DEBUG] - Term-01,  Date: 2016-05-30 16:44:00
16:44:00.495 [DEBUG] - Term-01,  
16:44:00.495 [DEBUG] - Term-01,  Warehouse: 1
16:44:00.495 [DEBUG] - Term-01,    Street:  belrtBXgLRsRfCfw
16:44:00.495 [DEBUG] - Term-01,    Street:  LOqAcUWiquFabopRk
16:44:00.495 [DEBUG] - Term-01,    City:    RvXcxMboEhSxCTSuj   State: QK  Zip: 123456
16:44:00.495 [DEBUG] - Term-01,  
16:44:00.495 [DEBUG] - Term-01,  District:  3
16:44:00.495 [DEBUG] - Term-01,    Street:  SweFaXZfyBEKUrXXdZ
16:44:00.495 [DEBUG] - Term-01,    Street:  vNdYxHOQa
16:44:00.495 [DEBUG] - Term-01,    City:    IkhONbLeEG   State: NF  Zip: 12345678
16:44:00.495 [DEBUG] - Term-01,  
16:44:00.495 [DEBUG] - Term-01,  Customer:  77
16:44:00.495 [DEBUG] - Term-01,    Name:    ShIYcvRnBGfIk OE null
16:44:00.495 [DEBUG] - Term-01,    Street:  NMmdJNkAWUnMOWYZa
16:44:00.496 [DEBUG] - Term-01,    Street:  FjKieOdpaujc
16:44:00.496 [DEBUG] - Term-01,    City:    DsXPifSZOjVC   State: RK  Zip: 123456789
16:44:00.496 [DEBUG] - Term-01, 
16:44:00.496 [DEBUG] - Term-01,    Since:   1462954968780
16:44:00.496 [DEBUG] - Term-01,    Credit:  BC
16:44:00.497 [DEBUG] - Term-01,    %Disc:   0.11330000311136246
16:44:00.497 [DEBUG] - Term-01,    Phone:   (732)744-1700
16:44:00.497 [DEBUG] - Term-01,  
16:44:00.497 [DEBUG] - Term-01,  Amount Paid:      4761.04
16:44:00.497 [DEBUG] - Term-01,  Credit Limit:     50000
16:44:00.497 [DEBUG] - Term-01,  New Cust-Balance: -10.0
16:44:00.497 [DEBUG] - Term-01,  Cust-Data: ndVNZFcpshexaJqnvHAGCJzyXMXUEOBQrCOJrypvMTXJIQFvik            aizvCNMXINFHzJKkVrJHuSAQYTqLKdNCEMCTGXPWTPOJtjQNqQ            vVNGCpGslZgnJdypFQLlmpksROdWMzvJujuAPhTJYCPUBaNnfP            FsCIyFEDVOWFbQFSDFAzBzuwrXwCxFymNQtmJmFlveqrYFjWIr
16:44:00.497 [DEBUG] - Term-01, +-----------------------------------------------------------------+
Payment :: 146
transaction-start : 0
update-warehouse : 8
read-warehouse : 8
update-district : 27
read-district : 4
found-customer : 49
update-customer : 38
create-history : 10
transaction-end : 2

16:44:00.497 [DEBUG] - Term-01, Last name lookup = PRIBARATION
16:44:00.497 [DEBUG] - Term-01, 
16:44:00.497 [DEBUG] - Term-01, Starting transaction #5 (Payment)...
16:44:00.497 [DEBUG] - 1- All object caches are available. try to send command directly
16:44:00.497 [DEBUG] - no move needed
16:44:00.497 [DEBUG] - 1- >>>> Sending command [UPDATE, [(Warehouse:w_id=1)], ch.usi.dslab.lel.dsqldb.DSqlCommandPayload@3003c5c2] to actual partition [1]
16:44:00.616 [DEBUG] - 1- Try to update internal cache from command result
16:44:00.616 [DEBUG] - 1- >>>> Sending command [READ, (Warehouse:w_id=1)] to actual partition [1]
16:44:00.622 [DEBUG] - 1- Try to update internal cache from command result
16:44:00.622 [DEBUG] - 1- All object caches are available. try to send command directly
16:44:00.622 [DEBUG] - no move needed
16:44:00.622 [DEBUG] - 1- >>>> Sending command [UPDATE, [(District:d_id=2:d_w_id=1)], ch.usi.dslab.lel.dsqldb.DSqlCommandPayload@5d54656b] to actual partition [2]
16:44:00.630 [DEBUG] - 1- Try to update internal cache from command result
16:44:00.630 [DEBUG] - 1- >>>> Sending command [READ, (District:d_id=2:d_w_id=1)] to actual partition [2]
16:44:00.668 [DEBUG] - 1- Try to update internal cache from command result
16:44:00.722 [DEBUG] - 1 - try to update internal cache from query
16:44:00.725 [DEBUG] - 1- Get object (Customer:c_id=64:c_d_id=2:c_w_id=1:c_last=PRIBARATION) location from Oracle: 1
16:44:00.725 [DEBUG] - 1- All object caches are available. try to send command directly
16:44:00.725 [DEBUG] - no move needed
16:44:00.725 [DEBUG] - 1- >>>> Sending command [READ_BATCH, [(Customer:c_id=64:c_d_id=2:c_w_id=1:c_last=PRIBARATION)]] to actual partition [1]
16:44:00.745 [DEBUG] - 1- Try to update internal cache from command result
16:44:00.745 [DEBUG] - 1- All object caches are available. try to send command directly
16:44:00.745 [DEBUG] - no move needed
16:44:00.745 [DEBUG] - 1- >>>> Sending command [UPDATE, [(Customer:c_id=64:c_d_id=2:c_w_id=1:c_last=PRIBARATION)], ch.usi.dslab.lel.dsqldb.DSqlCommandPayload@7137db57] to actual partition [1]
16:44:00.751 [DEBUG] - 1- Try to update internal cache from command result
16:44:00.755 [DEBUG] - 1 - try to update internal cache from query
16:44:00.757 [DEBUG] - 1- Get object (History:h_c_id=2:h_c_d_id=2:h_c_w_id=1) location from Oracle: 2
16:44:00.757 [DEBUG] - 1- >>>> Sending command [CREATE, (History:h_c_id=2:h_c_d_id=2:h_c_w_id=1), next = ch.usi.dslab.lel.dsqldb.DSqlCommandPayload@61e98506] to actual partition [2]
16:44:00.762 [DEBUG] - 1- Try to update internal cache from command result
16:44:00.762 [DEBUG] - Term-01, Succesful INSERT into history table
16:44:00.762 [DEBUG] - Term-01, +---------------------------- PAYMENT ----------------------------+
16:44:00.762 [DEBUG] - Term-01,  Date: 2016-05-30 16:44:00
16:44:00.762 [DEBUG] - Term-01,  
16:44:00.762 [DEBUG] - Term-01,  Warehouse: 1
16:44:00.762 [DEBUG] - Term-01,    Street:  belrtBXgLRsRfCfw
16:44:00.762 [DEBUG] - Term-01,    Street:  LOqAcUWiquFabopRk
16:44:00.763 [DEBUG] - Term-01,    City:    RvXcxMboEhSxCTSuj   State: QK  Zip: 123456
16:44:00.763 [DEBUG] - Term-01,  
16:44:00.763 [DEBUG] - Term-01,  District:  2
16:44:00.763 [DEBUG] - Term-01,    Street:  LNiwXoqtUPllmbAo
16:44:00.763 [DEBUG] - Term-01,    Street:  IRkikVHduODp
16:44:00.763 [DEBUG] - Term-01,    City:    vsaLRIJkTmbMpjjOco   State: AD  Zip: 12345678
16:44:00.763 [DEBUG] - Term-01,  
16:44:00.763 [DEBUG] - Term-01,  Customer:  64
16:44:00.763 [DEBUG] - Term-01,    Name:    gfUchhMq OE PRIBARATION
16:44:00.763 [DEBUG] - Term-01,    Street:  WvmOccaxLBT
16:44:00.763 [DEBUG] - Term-01,    Street:  WnQZGCQZuIoLUutN
16:44:00.763 [DEBUG] - Term-01,    City:    TVYVTpKaIJluioNzD   State: TT  Zip: 123456789
16:44:00.763 [DEBUG] - Term-01, 
16:44:00.763 [DEBUG] - Term-01,    Since:   1462954968764
16:44:00.763 [DEBUG] - Term-01,    Credit:  BC
16:44:00.763 [DEBUG] - Term-01,    %Disc:   0.23819999396800995
16:44:00.763 [DEBUG] - Term-01,    Phone:   (732)744-1700
16:44:00.763 [DEBUG] - Term-01,  
16:44:00.763 [DEBUG] - Term-01,  Amount Paid:      1571.16
16:44:00.763 [DEBUG] - Term-01,  Credit Limit:     50000
16:44:00.763 [DEBUG] - Term-01,  New Cust-Balance: -10.0
16:44:00.763 [DEBUG] - Term-01,  Cust-Data: CJrTelBeXlARNMkfoYXYQZRkQWnJnmDZtTSjJjTYKlOufmYvFb            FlqefwdnlIidggvKDplMvtoWEYVWSPcrQwrAPkWKwpBIuSuDBu            dJhYtkIOhZCmbIzJAhEVdbWnVFgSdOeriwqDcAcwJwHpkjFUJv            yNftKooNhyHZEmtnvDWdmVsZUKaCFARPQhTHvxSfZkawuAsYVa
16:44:00.763 [DEBUG] - Term-01, +-----------------------------------------------------------------+
Payment :: 266
transaction-start : 0
update-warehouse : 119
read-warehouse : 6
update-district : 8
read-district : 38
get-customer-by-name : 77
found-customer : 0
update-customer : 6
create-history : 11
transaction-end : 1

16:44:00.763 [DEBUG] - Term-01, Last name lookup = ATIONABLEBAR
16:44:00.763 [DEBUG] - Term-01, 
16:44:00.763 [DEBUG] - Term-01, Starting transaction #6 (Payment)...
16:44:00.764 [DEBUG] - 1- All object caches are available. try to send command directly
16:44:00.764 [DEBUG] - no move needed
16:44:00.764 [DEBUG] - 1- >>>> Sending command [UPDATE, [(Warehouse:w_id=1)], ch.usi.dslab.lel.dsqldb.DSqlCommandPayload@2d555fb2] to actual partition [1]
16:44:00.773 [DEBUG] - 1- Try to update internal cache from command result
16:44:00.773 [DEBUG] - 1- >>>> Sending command [READ, (Warehouse:w_id=1)] to actual partition [1]
16:44:00.776 [DEBUG] - 1- Try to update internal cache from command result
16:44:00.777 [DEBUG] - 1- All object caches are available. try to send command directly
16:44:00.777 [DEBUG] - no move needed
16:44:00.777 [DEBUG] - 1- >>>> Sending command [UPDATE, [(District:d_id=1:d_w_id=1)], ch.usi.dslab.lel.dsqldb.DSqlCommandPayload@67f5230a] to actual partition [1]
16:44:00.785 [DEBUG] - 1- Try to update internal cache from command result
16:44:00.785 [DEBUG] - 1- >>>> Sending command [READ, (District:d_id=1:d_w_id=1)] to actual partition [1]
16:44:00.789 [DEBUG] - 1- Try to update internal cache from command result
16:44:00.794 [DEBUG] - 1 - try to update internal cache from query
16:44:00.794 [DEBUG] - 1- All object caches are available. try to send command directly
16:44:00.794 [DEBUG] - no move needed
16:44:00.798 [DEBUG] - 1 - try to update internal cache from query
16:44:00.799 [DEBUG] - 1- All object caches are available. try to send command directly
16:44:00.799 [DEBUG] - no move needed
16:44:00.803 [DEBUG] - 1 - try to update internal cache from query
16:44:00.803 [DEBUG] - 1- All object caches are available. try to send command directly
16:44:00.803 [DEBUG] - no move needed
16:44:00.806 [DEBUG] - 1 - try to update internal cache from query
16:44:00.807 [DEBUG] - 1- All object caches are available. try to send command directly
16:44:00.807 [DEBUG] - no move needed
16:44:00.810 [DEBUG] - 1 - try to update internal cache from query
16:44:00.810 [DEBUG] - 1- All object caches are available. try to send command directly
16:44:00.810 [DEBUG] - no move needed
16:44:00.813 [DEBUG] - 1 - try to update internal cache from query
16:44:00.813 [DEBUG] - 1- All object caches are available. try to send command directly
16:44:00.813 [DEBUG] - no move needed
16:44:00.818 [DEBUG] - 1 - try to update internal cache from query
16:44:00.818 [DEBUG] - 1- All object caches are available. try to send command directly
16:44:00.818 [DEBUG] - no move needed
16:44:00.820 [DEBUG] - 1 - try to update internal cache from query
16:44:00.821 [DEBUG] - 1- All object caches are available. try to send command directly
16:44:00.821 [DEBUG] - no move needed
16:44:00.825 [DEBUG] - 1 - try to update internal cache from query
16:44:00.826 [DEBUG] - 1- All object caches are available. try to send command directly
16:44:00.826 [DEBUG] - no move needed
16:44:00.829 [DEBUG] - 1 - try to update internal cache from query
16:44:00.830 [DEBUG] - 1- All object caches are available. try to send command directly
16:44:00.830 [DEBUG] - no move needed
16:44:00.833 [DEBUG] - 1 - try to update internal cache from query
16:44:00.833 [DEBUG] - 1- All object caches are available. try to send command directly
16:44:00.833 [DEBUG] - no move needed
16:44:00.837 [DEBUG] - 1 - try to update internal cache from query
16:44:00.837 [DEBUG] - 1- All object caches are available. try to send command directly
16:44:00.837 [DEBUG] - no move needed
16:44:00.841 [DEBUG] - 1 - try to update internal cache from query
16:44:00.841 [DEBUG] - 1- All object caches are available. try to send command directly
16:44:00.841 [DEBUG] - no move needed
16:44:00.843 [DEBUG] - 1 - try to update internal cache from query
16:44:00.844 [DEBUG] - 1- All object caches are available. try to send command directly
16:44:00.844 [DEBUG] - no move needed
16:44:00.847 [DEBUG] - 1 - try to update internal cache from query
16:44:00.849 [DEBUG] - 1- Get object (Customer:c_id=87:c_d_id=1:c_w_id=1:c_last=PRESPRIATION) location from Oracle: 2
16:44:00.849 [DEBUG] - 1- All object caches are available. try to send command directly
16:44:00.849 [DEBUG] - no move needed
16:44:00.849 [DEBUG] - 1- >>>> Sending command [READ_BATCH, [(Customer:c_id=87:c_d_id=1:c_w_id=1:c_last=PRESPRIATION)]] to actual partition [2]
16:44:00.853 [DEBUG] - 1- Try to update internal cache from command result
16:44:00.853 [DEBUG] - 1- All object caches are available. try to send command directly
16:44:00.853 [DEBUG] - no move needed
16:44:00.853 [DEBUG] - 1- >>>> Sending command [UPDATE, [(Customer:c_id=87:c_d_id=1:c_w_id=1:c_last=PRESPRIATION)], ch.usi.dslab.lel.dsqldb.DSqlCommandPayload@1522cbc3] to actual partition [2]
16:44:00.858 [DEBUG] - 1- Try to update internal cache from command result
16:44:00.861 [DEBUG] - 1 - try to update internal cache from query
16:44:00.863 [DEBUG] - 1- Get object (History:h_c_id=1:h_c_d_id=1:h_c_w_id=1) location from Oracle: 2
16:44:00.863 [DEBUG] - 1- >>>> Sending command [CREATE, (History:h_c_id=1:h_c_d_id=1:h_c_w_id=1), next = ch.usi.dslab.lel.dsqldb.DSqlCommandPayload@35f42860] to actual partition [2]
16:44:00.868 [DEBUG] - 1- Try to update internal cache from command result
16:44:00.868 [DEBUG] - Term-01, Succesful INSERT into history table
16:44:00.868 [DEBUG] - Term-01, +---------------------------- PAYMENT ----------------------------+
16:44:00.869 [DEBUG] - Term-01,  Date: 2016-05-30 16:44:00
16:44:00.869 [DEBUG] - Term-01,  
16:44:00.869 [DEBUG] - Term-01,  Warehouse: 1
16:44:00.869 [DEBUG] - Term-01,    Street:  belrtBXgLRsRfCfw
16:44:00.869 [DEBUG] - Term-01,    Street:  LOqAcUWiquFabopRk
16:44:00.869 [DEBUG] - Term-01,    City:    RvXcxMboEhSxCTSuj   State: QK  Zip: 123456
16:44:00.869 [DEBUG] - Term-01,  
16:44:00.869 [DEBUG] - Term-01,  District:  1
16:44:00.869 [DEBUG] - Term-01,    Street:  GYTmFQjlemVGcdsh
16:44:00.869 [DEBUG] - Term-01,    Street:  SqHkABsmVOweUDLg
16:44:00.869 [DEBUG] - Term-01,    City:    OaRPAHtyurNY   State: YH  Zip: 12345678
16:44:00.869 [DEBUG] - Term-01,  
16:44:00.869 [DEBUG] - Term-01,  Customer:  87
16:44:00.869 [DEBUG] - Term-01,    Name:    JokZwdOqYuc OE ATIONABLEBAR
16:44:00.869 [DEBUG] - Term-01,    Street:  aEjBSflYyhvULiQSb
16:44:00.869 [DEBUG] - Term-01,    Street:  pVcYlXfalAEIxOwDJj
16:44:00.869 [DEBUG] - Term-01,    City:    FaSJUCjGyjLfY   State: AQ  Zip: 123456789
16:44:00.869 [DEBUG] - Term-01, 
16:44:00.869 [DEBUG] - Term-01,    Since:   1462954968751
16:44:00.869 [DEBUG] - Term-01,    Credit:  BC
16:44:00.869 [DEBUG] - Term-01,    %Disc:   0.18070000410079956
16:44:00.869 [DEBUG] - Term-01,    Phone:   (732)744-1700
16:44:00.869 [DEBUG] - Term-01,  
16:44:00.869 [DEBUG] - Term-01,  Amount Paid:      262.55
16:44:00.869 [DEBUG] - Term-01,  Credit Limit:     50000
16:44:00.869 [DEBUG] - Term-01,  New Cust-Balance: -10.0
16:44:00.869 [DEBUG] - Term-01,  Cust-Data: COjoVyvONKWroPDlFbXmCbDAgMvCRyliSjbpdapjxKMVCcYpZf            WShpvOryWcsTLabKGMXYTLeCkSDCwFiXeDCvpuwTpjTiUrXAHj            OMwPvcTOhpumLMsXzVKxeYTcXqjnqdKiUNHlRKTUfVAjRgdiyB            EzOLvgDHjEyKuXqmxtZJTrXqFMEeZooqlXqlHvrUgxhsUkgaxk
16:44:00.869 [DEBUG] - Term-01, +-----------------------------------------------------------------+
Payment :: 106
transaction-start : 0
update-warehouse : 10
read-warehouse : 3
update-district : 9
read-district : 4
get-customer-by-name : 5
get-customer-by-name : 5
get-customer-by-name : 4
get-customer-by-name : 3
get-customer-by-name : 4
get-customer-by-name : 3
get-customer-by-name : 5
get-customer-by-name : 3
get-customer-by-name : 4
get-customer-by-name : 4
get-customer-by-name : 4
get-customer-by-name : 4
get-customer-by-name : 4
get-customer-by-name : 2
get-customer-by-name : 10
found-customer : 0
update-customer : 5
create-history : 10
transaction-end : 1

16:44:00.869 [DEBUG] - Term-01, 
16:44:00.869 [DEBUG] - Term-01, Starting transaction #7 (Payment)...
16:44:00.870 [DEBUG] - 1- All object caches are available. try to send command directly
16:44:00.870 [DEBUG] - no move needed
16:44:00.870 [DEBUG] - 1- >>>> Sending command [UPDATE, [(Warehouse:w_id=1)], ch.usi.dslab.lel.dsqldb.DSqlCommandPayload@413dbe0c] to actual partition [1]
16:44:00.948 [DEBUG] - 1- Try to update internal cache from command result
16:44:00.948 [DEBUG] - 1- >>>> Sending command [READ, (Warehouse:w_id=1)] to actual partition [1]
16:44:01.000 [DEBUG] - 1- Try to update internal cache from command result
16:44:01.001 [DEBUG] - 1- All object caches are available. try to send command directly
16:44:01.001 [DEBUG] - no move needed
16:44:01.001 [DEBUG] - 1- >>>> Sending command [UPDATE, [(District:d_id=3:d_w_id=1)], ch.usi.dslab.lel.dsqldb.DSqlCommandPayload@775b64d2] to actual partition [1]
16:44:01.008 [DEBUG] - 1- Try to update internal cache from command result
16:44:01.008 [DEBUG] - 1- >>>> Sending command [READ, (District:d_id=3:d_w_id=1)] to actual partition [1]
16:44:01.046 [DEBUG] - 1- Try to update internal cache from command result
16:44:01.047 [DEBUG] - 1- >>>> Sending command [READ, (Customer:c_id=48:c_d_id=3:c_w_id=1)] to actual partition [1]
16:44:01.059 [DEBUG] - 1- Try to update internal cache from command result
16:44:01.060 [DEBUG] - 1- All object caches are available. try to send command directly
16:44:01.060 [DEBUG] - no move needed
16:44:01.060 [DEBUG] - 1- >>>> Sending command [UPDATE, [(Customer:c_id=48:c_d_id=3:c_w_id=1:c_last=BARPRIANTI)], ch.usi.dslab.lel.dsqldb.DSqlCommandPayload@5dbb2011] to actual partition [1]
16:44:01.072 [DEBUG] - 1- Try to update internal cache from command result
16:44:01.081 [DEBUG] - 1 - try to update internal cache from query
16:44:01.081 [DEBUG] - 1- Get object (History:h_c_id=3:h_c_d_id=3:h_c_w_id=1) location from Oracle: 2
16:44:01.081 [DEBUG] - 1- >>>> Sending command [CREATE, (History:h_c_id=3:h_c_d_id=3:h_c_w_id=1), next = ch.usi.dslab.lel.dsqldb.DSqlCommandPayload@67b89f83] to actual partition [2]
16:44:01.087 [DEBUG] - 1- Try to update internal cache from command result
16:44:01.087 [DEBUG] - Term-01, Succesful INSERT into history table
16:44:01.087 [DEBUG] - Term-01, +---------------------------- PAYMENT ----------------------------+
16:44:01.087 [DEBUG] - Term-01,  Date: 2016-05-30 16:44:01
16:44:01.087 [DEBUG] - Term-01,  
16:44:01.087 [DEBUG] - Term-01,  Warehouse: 1
16:44:01.087 [DEBUG] - Term-01,    Street:  belrtBXgLRsRfCfw
16:44:01.087 [DEBUG] - Term-01,    Street:  LOqAcUWiquFabopRk
16:44:01.087 [DEBUG] - Term-01,    City:    RvXcxMboEhSxCTSuj   State: QK  Zip: 123456
16:44:01.087 [DEBUG] - Term-01,  
16:44:01.087 [DEBUG] - Term-01,  District:  3
16:44:01.087 [DEBUG] - Term-01,    Street:  SweFaXZfyBEKUrXXdZ
16:44:01.087 [DEBUG] - Term-01,    Street:  vNdYxHOQa
16:44:01.087 [DEBUG] - Term-01,    City:    IkhONbLeEG   State: NF  Zip: 12345678
16:44:01.087 [DEBUG] - Term-01,  
16:44:01.087 [DEBUG] - Term-01,  Customer:  48
16:44:01.087 [DEBUG] - Term-01,    Name:    diLaGXexcKBzp OE null
16:44:01.087 [DEBUG] - Term-01,    Street:  LylUROxYLwcPBWH
16:44:01.087 [DEBUG] - Term-01,    Street:  bxcMjSatkTMJhwexfR
16:44:01.087 [DEBUG] - Term-01,    City:    SKVMhhqVy   State: OK  Zip: 123456789
16:44:01.087 [DEBUG] - Term-01, 
16:44:01.087 [DEBUG] - Term-01,    Since:   1462954968776
16:44:01.087 [DEBUG] - Term-01,    Credit:  BC
16:44:01.087 [DEBUG] - Term-01,    %Disc:   0.18700000643730164
16:44:01.087 [DEBUG] - Term-01,    Phone:   (732)744-1700
16:44:01.087 [DEBUG] - Term-01,  
16:44:01.087 [DEBUG] - Term-01,  Amount Paid:      2405.29
16:44:01.087 [DEBUG] - Term-01,  Credit Limit:     50000
16:44:01.087 [DEBUG] - Term-01,  New Cust-Balance: -10.0
16:44:01.088 [DEBUG] - Term-01,  Cust-Data: VThVzDpOOTkgfSHuabBKomtFcABKPmhmdrVYhKMVgolNRSBvzE            ADazxlDVIWLRoYgSbWhZoilwFkFRzVFgndAwyueCTkSezZIcek            tatkiRnHuoIHNxQpnkcTAOCeVZyxHirgjdGsSeqCtyazPNPsqj            UaHePNqQAzbdOxTjOhknaWSaNGNzXaxjlWoIPMlhKUeRaPyjVl
16:44:01.088 [DEBUG] - Term-01, +-----------------------------------------------------------------+
Payment :: 219
transaction-start : 0
update-warehouse : 79
read-warehouse : 52
update-district : 8
read-district : 38
found-customer : 14
update-customer : 12
create-history : 15
transaction-end : 1

16:44:01.088 [DEBUG] - Term-01, Last name lookup = OUGHTEINGOUGHT
16:44:01.088 [DEBUG] - Term-01, 
16:44:01.088 [DEBUG] - Term-01, Starting transaction #8 (Payment)...
16:44:01.088 [DEBUG] - 1- All object caches are available. try to send command directly
16:44:01.088 [DEBUG] - no move needed
16:44:01.088 [DEBUG] - 1- >>>> Sending command [UPDATE, [(Warehouse:w_id=1)], ch.usi.dslab.lel.dsqldb.DSqlCommandPayload@277169ea] to actual partition [1]
16:44:01.101 [DEBUG] - 1- Try to update internal cache from command result
16:44:01.101 [DEBUG] - 1- >>>> Sending command [READ, (Warehouse:w_id=1)] to actual partition [1]
16:44:01.105 [DEBUG] - 1- Try to update internal cache from command result
16:44:01.106 [DEBUG] - 1- All object caches are available. try to send command directly
16:44:01.106 [DEBUG] - no move needed
16:44:01.106 [DEBUG] - 1- >>>> Sending command [UPDATE, [(District:d_id=2:d_w_id=1)], ch.usi.dslab.lel.dsqldb.DSqlCommandPayload@cd75970] to actual partition [2]
16:44:01.113 [DEBUG] - 1- Try to update internal cache from command result
16:44:01.113 [DEBUG] - 1- >>>> Sending command [READ, (District:d_id=2:d_w_id=1)] to actual partition [2]
16:44:01.116 [DEBUG] - 1- Try to update internal cache from command result
16:44:01.120 [DEBUG] - 1 - try to update internal cache from query
16:44:01.120 [DEBUG] - 1- All object caches are available. try to send command directly
16:44:01.120 [DEBUG] - no move needed
16:44:01.122 [DEBUG] - 1 - try to update internal cache from query
16:44:01.123 [DEBUG] - 1- All object caches are available. try to send command directly
16:44:01.123 [DEBUG] - no move needed
16:44:01.126 [DEBUG] - 1 - try to update internal cache from query
16:44:01.128 [DEBUG] - 1- All object caches are available. try to send command directly
16:44:01.128 [DEBUG] - no move needed
16:44:01.130 [DEBUG] - 1 - try to update internal cache from query
16:44:01.130 [DEBUG] - 1- All object caches are available. try to send command directly
16:44:01.130 [DEBUG] - no move needed
16:44:01.134 [DEBUG] - 1 - try to update internal cache from query
16:44:01.134 [DEBUG] - 1- All object caches are available. try to send command directly
16:44:01.134 [DEBUG] - no move needed
16:44:01.136 [DEBUG] - 1 - try to update internal cache from query
16:44:01.137 [DEBUG] - 1- All object caches are available. try to send command directly
16:44:01.137 [DEBUG] - no move needed
16:44:01.140 [DEBUG] - 1 - try to update internal cache from query
16:44:01.141 [DEBUG] - 1- All object caches are available. try to send command directly
16:44:01.141 [DEBUG] - no move needed
16:44:01.144 [DEBUG] - 1 - try to update internal cache from query
16:44:01.144 [DEBUG] - 1- All object caches are available. try to send command directly
16:44:01.144 [DEBUG] - no move needed
16:44:01.146 [DEBUG] - 1 - try to update internal cache from query
16:44:01.146 [DEBUG] - 1- All object caches are available. try to send command directly
16:44:01.146 [DEBUG] - no move needed
16:44:01.150 [DEBUG] - 1 - try to update internal cache from query
16:44:01.150 [DEBUG] - 1- All object caches are available. try to send command directly
16:44:01.150 [DEBUG] - no move needed
16:44:01.154 [DEBUG] - 1 - try to update internal cache from query
16:44:01.154 [DEBUG] - 1- All object caches are available. try to send command directly
16:44:01.154 [DEBUG] - no move needed
16:44:01.158 [DEBUG] - 1 - try to update internal cache from query
16:44:01.159 [DEBUG] - 1- All object caches are available. try to send command directly
16:44:01.159 [DEBUG] - no move needed
16:44:01.162 [DEBUG] - 1 - try to update internal cache from query
16:44:01.163 [DEBUG] - 1- Get object (Customer:c_id=48:c_d_id=2:c_w_id=1:c_last=PRESATIONOUGHT) location from Oracle: 2
16:44:01.164 [DEBUG] - 1- All object caches are available. try to send command directly
16:44:01.164 [DEBUG] - no move needed
16:44:01.164 [DEBUG] - 1- >>>> Sending command [READ_BATCH, [(Customer:c_id=48:c_d_id=2:c_w_id=1:c_last=PRESATIONOUGHT)]] to actual partition [2]
16:44:01.169 [DEBUG] - 1- Try to update internal cache from command result
16:44:01.169 [DEBUG] - 1- All object caches are available. try to send command directly
16:44:01.169 [DEBUG] - no move needed
16:44:01.169 [DEBUG] - 1- >>>> Sending command [UPDATE, [(Customer:c_id=48:c_d_id=2:c_w_id=1:c_last=PRESATIONOUGHT)], ch.usi.dslab.lel.dsqldb.DSqlCommandPayload@6c6478f5] to actual partition [2]
16:44:01.173 [DEBUG] - 1- Try to update internal cache from command result
16:44:01.175 [DEBUG] - 1 - try to update internal cache from query
16:44:01.176 [DEBUG] - 1- Get object (History:h_c_id=4:h_c_d_id=4:h_c_w_id=1) location from Oracle: 2
16:44:01.176 [DEBUG] - 1- >>>> Sending command [CREATE, (History:h_c_id=4:h_c_d_id=4:h_c_w_id=1), next = ch.usi.dslab.lel.dsqldb.DSqlCommandPayload@68d8abcb] to actual partition [2]
16:44:01.182 [DEBUG] - 1- Try to update internal cache from command result
16:44:01.182 [DEBUG] - Term-01, Succesful INSERT into history table
16:44:01.182 [DEBUG] - Term-01, +---------------------------- PAYMENT ----------------------------+
16:44:01.182 [DEBUG] - Term-01,  Date: 2016-05-30 16:44:01
16:44:01.182 [DEBUG] - Term-01,  
16:44:01.182 [DEBUG] - Term-01,  Warehouse: 1
16:44:01.182 [DEBUG] - Term-01,    Street:  belrtBXgLRsRfCfw
16:44:01.182 [DEBUG] - Term-01,    Street:  LOqAcUWiquFabopRk
16:44:01.182 [DEBUG] - Term-01,    City:    RvXcxMboEhSxCTSuj   State: QK  Zip: 123456
16:44:01.182 [DEBUG] - Term-01,  
16:44:01.182 [DEBUG] - Term-01,  District:  2
16:44:01.182 [DEBUG] - Term-01,    Street:  LNiwXoqtUPllmbAo
16:44:01.182 [DEBUG] - Term-01,    Street:  IRkikVHduODp
16:44:01.182 [DEBUG] - Term-01,    City:    vsaLRIJkTmbMpjjOco   State: AD  Zip: 12345678
16:44:01.182 [DEBUG] - Term-01,  
16:44:01.182 [DEBUG] - Term-01,  Customer:  48
16:44:01.182 [DEBUG] - Term-01,    Name:    iULjeKLFH OE OUGHTEINGOUGHT
16:44:01.182 [DEBUG] - Term-01,    Street:  ZyxdnbAPWIaeA
16:44:01.182 [DEBUG] - Term-01,    Street:  qJFNibZvC
16:44:01.182 [DEBUG] - Term-01,    City:    rALwoDPXZbgNJtzBk   State: UE  Zip: 123456789
16:44:01.182 [DEBUG] - Term-01, 
16:44:01.182 [DEBUG] - Term-01,    Since:   1462954968762
16:44:01.182 [DEBUG] - Term-01,    Credit:  BC
16:44:01.182 [DEBUG] - Term-01,    %Disc:   0.40149998664855957
16:44:01.182 [DEBUG] - Term-01,    Phone:   (732)744-1700
16:44:01.182 [DEBUG] - Term-01,  
16:44:01.182 [DEBUG] - Term-01,  Amount Paid:      3321.25
16:44:01.182 [DEBUG] - Term-01,  Credit Limit:     50000
16:44:01.182 [DEBUG] - Term-01,  New Cust-Balance: -10.0
16:44:01.182 [DEBUG] - Term-01,  Cust-Data: HXYpnoZwakLmdROOwwCGROMfIRujqaSOMkwPVyyKexObDIQrhk            dIeghaSKLoiZmvnbTYcYCtjpmYZAPdBDnEkjJeJFrRlOkxVEom            wcnnyUdIJpeokwdfgQFRWTqqVKhupdHqCdhfQKulsUOLFqTySg            NGGpAkOvAHbPjADccCQSMmHTPOKGpVDLyRyQIEqFAhfqwhCAtq
16:44:01.182 [DEBUG] - Term-01, +-----------------------------------------------------------------+
Payment :: 94
transaction-start : 0
update-warehouse : 13
read-warehouse : 4
update-district : 8
read-district : 3
get-customer-by-name : 4
get-customer-by-name : 2
get-customer-by-name : 4
get-customer-by-name : 4
get-customer-by-name : 4
get-customer-by-name : 2
get-customer-by-name : 5
get-customer-by-name : 3
get-customer-by-name : 2
get-customer-by-name : 4
get-customer-by-name : 4
get-customer-by-name : 4
get-customer-by-name : 11
found-customer : 0
update-customer : 4
create-history : 9
transaction-end : 0

16:44:01.182 [DEBUG] - Term-01, 
16:44:01.182 [DEBUG] - Term-01, Starting transaction #9 (Payment)...
16:44:01.182 [DEBUG] - 1- All object caches are available. try to send command directly
16:44:01.182 [DEBUG] - no move needed
16:44:01.183 [DEBUG] - 1- >>>> Sending command [UPDATE, [(Warehouse:w_id=1)], ch.usi.dslab.lel.dsqldb.DSqlCommandPayload@37d97e2] to actual partition [1]
16:44:01.189 [DEBUG] - 1- Try to update internal cache from command result
16:44:01.190 [DEBUG] - 1- >>>> Sending command [READ, (Warehouse:w_id=1)] to actual partition [1]
16:44:01.193 [DEBUG] - 1- Try to update internal cache from command result
16:44:01.193 [DEBUG] - 1- All object caches are available. try to send command directly
16:44:01.193 [DEBUG] - no move needed
16:44:01.193 [DEBUG] - 1- >>>> Sending command [UPDATE, [(District:d_id=3:d_w_id=1)], ch.usi.dslab.lel.dsqldb.DSqlCommandPayload@236697b3] to actual partition [1]
16:44:01.205 [DEBUG] - 1- Try to update internal cache from command result
16:44:01.205 [DEBUG] - 1- >>>> Sending command [READ, (District:d_id=3:d_w_id=1)] to actual partition [1]
16:44:01.208 [DEBUG] - 1- Try to update internal cache from command result
16:44:01.208 [DEBUG] - 1- >>>> Sending command [READ, (Customer:c_id=18:c_d_id=3:c_w_id=1)] to actual partition [2]
16:44:01.250 [DEBUG] - 1- Try to update internal cache from command result
16:44:01.251 [DEBUG] - 1- All object caches are available. try to send command directly
16:44:01.251 [DEBUG] - no move needed
16:44:01.251 [DEBUG] - 1- >>>> Sending command [UPDATE, [(Customer:c_id=18:c_d_id=3:c_w_id=1:c_last=ABLEOUGHTESE)], ch.usi.dslab.lel.dsqldb.DSqlCommandPayload@435d4784] to actual partition [2]
16:44:01.260 [DEBUG] - 1- Try to update internal cache from command result
16:44:01.272 [DEBUG] - 1 - try to update internal cache from query
16:44:01.274 [DEBUG] - 1- Get object (History:h_c_id=3:h_c_d_id=3:h_c_w_id=1) location from Oracle: 2
16:44:01.274 [DEBUG] - 1- >>>> Sending command [CREATE, (History:h_c_id=3:h_c_d_id=3:h_c_w_id=1), next = ch.usi.dslab.lel.dsqldb.DSqlCommandPayload@2b528ee1] to actual partition [2]
16:44:01.283 [DEBUG] - 1- Try to update internal cache from command result
16:44:01.283 [DEBUG] - Term-01, Succesful INSERT into history table
16:44:01.283 [DEBUG] - Term-01, +---------------------------- PAYMENT ----------------------------+
16:44:01.283 [DEBUG] - Term-01,  Date: 2016-05-30 16:44:01
16:44:01.283 [DEBUG] - Term-01,  
16:44:01.283 [DEBUG] - Term-01,  Warehouse: 1
16:44:01.283 [DEBUG] - Term-01,    Street:  belrtBXgLRsRfCfw
16:44:01.283 [DEBUG] - Term-01,    Street:  LOqAcUWiquFabopRk
16:44:01.283 [DEBUG] - Term-01,    City:    RvXcxMboEhSxCTSuj   State: QK  Zip: 123456
16:44:01.283 [DEBUG] - Term-01,  
16:44:01.283 [DEBUG] - Term-01,  District:  3
16:44:01.283 [DEBUG] - Term-01,    Street:  SweFaXZfyBEKUrXXdZ
16:44:01.283 [DEBUG] - Term-01,    Street:  vNdYxHOQa
16:44:01.283 [DEBUG] - Term-01,    City:    IkhONbLeEG   State: NF  Zip: 12345678
16:44:01.283 [DEBUG] - Term-01,  
16:44:01.283 [DEBUG] - Term-01,  Customer:  18
16:44:01.283 [DEBUG] - Term-01,    Name:    srUxpEPKgTn OE null
16:44:01.283 [DEBUG] - Term-01,    Street:  wvysJODrgftFOszExG
16:44:01.283 [DEBUG] - Term-01,    Street:  EiokhUBSUZfIy
16:44:01.283 [DEBUG] - Term-01,    City:    hwcaZMMKRTw   State: KO  Zip: 123456789
16:44:01.283 [DEBUG] - Term-01, 
16:44:01.283 [DEBUG] - Term-01,    Since:   1462954968771
16:44:01.283 [DEBUG] - Term-01,    Credit:  BC
16:44:01.283 [DEBUG] - Term-01,    %Disc:   0.14149999618530273
16:44:01.283 [DEBUG] - Term-01,    Phone:   (732)744-1700
16:44:01.283 [DEBUG] - Term-01,  
16:44:01.283 [DEBUG] - Term-01,  Amount Paid:      2481.65
16:44:01.283 [DEBUG] - Term-01,  Credit Limit:     50000
16:44:01.283 [DEBUG] - Term-01,  New Cust-Balance: -10.0
16:44:01.283 [DEBUG] - Term-01,  Cust-Data: WNHCCmTXMEZInslNCPerBPiqaDnyJfCNpwxZIkueGkafqvihEj            AvkapOZLqoQDtNmBAicrzjRnhhEdgAETBDRcnbrTPpqtcUmgqV            jmugEDHOMEXWikLgvDkQFgxemPUPgiNJSdwkzLckOSHzKJgWQo            KUnexXLfoAZLRqzoskAHCixaSiPgLkToBwHQNibkSlhUnZSpIc
16:44:01.283 [DEBUG] - Term-01, +-----------------------------------------------------------------+
Payment :: 101
transaction-start : 0
update-warehouse : 7
read-warehouse : 4
update-district : 12
read-district : 3
found-customer : 42
update-customer : 10
create-history : 23
transaction-end : 0

16:44:01.283 [DEBUG] - Term-01, 
16:44:01.283 [DEBUG] - Term-01, Starting transaction #10 (Payment)...
16:44:01.284 [DEBUG] - 1- All object caches are available. try to send command directly
16:44:01.284 [DEBUG] - no move needed
16:44:01.284 [DEBUG] - 1- >>>> Sending command [UPDATE, [(Warehouse:w_id=1)], ch.usi.dslab.lel.dsqldb.DSqlCommandPayload@4ab3455e] to actual partition [1]
16:44:01.291 [DEBUG] - 1- Try to update internal cache from command result
16:44:01.291 [DEBUG] - 1- >>>> Sending command [READ, (Warehouse:w_id=1)] to actual partition [1]
16:44:01.295 [DEBUG] - 1- Try to update internal cache from command result
16:44:01.295 [DEBUG] - 1- All object caches are available. try to send command directly
16:44:01.295 [DEBUG] - no move needed
16:44:01.295 [DEBUG] - 1- >>>> Sending command [UPDATE, [(District:d_id=1:d_w_id=1)], ch.usi.dslab.lel.dsqldb.DSqlCommandPayload@1860c1c6] to actual partition [1]
16:44:01.301 [DEBUG] - 1- Try to update internal cache from command result
16:44:01.302 [DEBUG] - 1- >>>> Sending command [READ, (District:d_id=1:d_w_id=1)] to actual partition [1]
16:44:01.304 [DEBUG] - 1- Try to update internal cache from command result
16:44:01.305 [DEBUG] - 1- >>>> Sending command [READ, (Customer:c_id=10:c_d_id=1:c_w_id=1)] to actual partition [2]
16:44:01.398 [DEBUG] - 1- Try to update internal cache from command result
16:44:01.398 [DEBUG] - 1- All object caches are available. try to send command directly
16:44:01.398 [DEBUG] - no move needed
16:44:01.398 [DEBUG] - 1- >>>> Sending command [UPDATE, [(Customer:c_id=10:c_d_id=1:c_w_id=1:c_last=ATIONESEPRES)], ch.usi.dslab.lel.dsqldb.DSqlCommandPayload@37ccbeff] to actual partition [2]
16:44:01.414 [DEBUG] - 1- Try to update internal cache from command result
16:44:01.418 [DEBUG] - 1 - try to update internal cache from query
16:44:01.419 [DEBUG] - 1- Get object (History:h_c_id=6:h_c_d_id=6:h_c_w_id=1) location from Oracle: 2
16:44:01.419 [DEBUG] - 1- >>>> Sending command [CREATE, (History:h_c_id=6:h_c_d_id=6:h_c_w_id=1), next = ch.usi.dslab.lel.dsqldb.DSqlCommandPayload@30e4d1a6] to actual partition [2]
16:44:01.434 [DEBUG] - 1- Try to update internal cache from command result
16:44:01.434 [DEBUG] - Term-01, Succesful INSERT into history table
16:44:01.434 [DEBUG] - Term-01, +---------------------------- PAYMENT ----------------------------+
16:44:01.434 [DEBUG] - Term-01,  Date: 2016-05-30 16:44:01
16:44:01.434 [DEBUG] - Term-01,  
16:44:01.434 [DEBUG] - Term-01,  Warehouse: 1
16:44:01.434 [DEBUG] - Term-01,    Street:  belrtBXgLRsRfCfw
16:44:01.434 [DEBUG] - Term-01,    Street:  LOqAcUWiquFabopRk
16:44:01.434 [DEBUG] - Term-01,    City:    RvXcxMboEhSxCTSuj   State: QK  Zip: 123456
16:44:01.434 [DEBUG] - Term-01,  
16:44:01.434 [DEBUG] - Term-01,  District:  1
16:44:01.434 [DEBUG] - Term-01,    Street:  GYTmFQjlemVGcdsh
16:44:01.434 [DEBUG] - Term-01,    Street:  SqHkABsmVOweUDLg
16:44:01.434 [DEBUG] - Term-01,    City:    OaRPAHtyurNY   State: YH  Zip: 12345678
16:44:01.434 [DEBUG] - Term-01,  
16:44:01.434 [DEBUG] - Term-01,  Customer:  10
16:44:01.434 [DEBUG] - Term-01,    Name:    QGDRBKNsGbJY OE null
16:44:01.434 [DEBUG] - Term-01,    Street:  rHWPQAWPgzqYjB
16:44:01.434 [DEBUG] - Term-01,    Street:  fYnTYoMyQgAPQE
16:44:01.434 [DEBUG] - Term-01,    City:    yEAIQcCPoWeuEGQRW   State: IL  Zip: 123456789
16:44:01.434 [DEBUG] - Term-01, 
16:44:01.434 [DEBUG] - Term-01,    Since:   1462954968740
16:44:01.434 [DEBUG] - Term-01,    Credit:  BC
16:44:01.434 [DEBUG] - Term-01,    %Disc:   0.3061000108718872
16:44:01.434 [DEBUG] - Term-01,    Phone:   (732)744-1700
16:44:01.434 [DEBUG] - Term-01,  
16:44:01.434 [DEBUG] - Term-01,  Amount Paid:      4092.49
16:44:01.434 [DEBUG] - Term-01,  Credit Limit:     50000
16:44:01.435 [DEBUG] - Term-01,  New Cust-Balance: -10.0
16:44:01.435 [DEBUG] - Term-01,  Cust-Data: FmkKryvLTVNkEOGXjhLyLlWXZzhFyyGmlHFggaskQGkubLSJiA            xMwlfwdyRQTBPWCCiztiCDfAFLoXZwVSnWrAaMyXzeoaDywont            mRMHExbNYJHgRSbtsbHwCcjzaglxhUGKMlpHfyVxnrXNIKuSPf            stttjTvmWpPODLXcxAwngukYtpaVJPmnmBHfdOdbOGcchXyJat
16:44:01.435 [DEBUG] - Term-01, +-----------------------------------------------------------------+
Payment :: 152
transaction-start : 0
update-warehouse : 8
read-warehouse : 4
update-district : 6
read-district : 3
found-customer : 94
update-customer : 17
create-history : 19
transaction-end : 1

16:44:01.455 [DEBUG] - Term-01, Last name lookup = OUGHTCALLYCALLY
16:44:01.456 [DEBUG] - Term-01, 
16:44:01.456 [DEBUG] - Term-01, Starting transaction #11 (Payment)...
16:44:01.456 [DEBUG] - 1- All object caches are available. try to send command directly
16:44:01.456 [DEBUG] - no move needed
16:44:01.456 [DEBUG] - 1- >>>> Sending command [UPDATE, [(Warehouse:w_id=1)], ch.usi.dslab.lel.dsqldb.DSqlCommandPayload@6aa915ca] to actual partition [1]
16:44:01.463 [DEBUG] - 1- Try to update internal cache from command result
16:44:01.463 [DEBUG] - 1- >>>> Sending command [READ, (Warehouse:w_id=1)] to actual partition [1]
16:44:01.466 [DEBUG] - 1- Try to update internal cache from command result
16:44:01.466 [DEBUG] - 1- All object caches are available. try to send command directly
16:44:01.466 [DEBUG] - no move needed
16:44:01.466 [DEBUG] - 1- >>>> Sending command [UPDATE, [(District:d_id=1:d_w_id=1)], ch.usi.dslab.lel.dsqldb.DSqlCommandPayload@2fcca61a] to actual partition [1]
16:44:01.472 [DEBUG] - 1- Try to update internal cache from command result
16:44:01.472 [DEBUG] - 1- >>>> Sending command [READ, (District:d_id=1:d_w_id=1)] to actual partition [1]
16:44:01.479 [DEBUG] - 1- Try to update internal cache from command result
16:44:01.483 [DEBUG] - 1 - try to update internal cache from query
16:44:01.484 [DEBUG] - 1- All object caches are available. try to send command directly
16:44:01.484 [DEBUG] - no move needed
16:44:01.487 [DEBUG] - 1 - try to update internal cache from query
16:44:01.488 [DEBUG] - 1- All object caches are available. try to send command directly
16:44:01.488 [DEBUG] - no move needed
16:44:01.495 [DEBUG] - 1 - try to update internal cache from query
16:44:01.496 [DEBUG] - 1- All object caches are available. try to send command directly
16:44:01.496 [DEBUG] - no move needed
16:44:01.498 [DEBUG] - 1 - try to update internal cache from query
16:44:01.499 [DEBUG] - 1- All object caches are available. try to send command directly
16:44:01.499 [DEBUG] - no move needed
16:44:01.503 [DEBUG] - 1 - try to update internal cache from query
16:44:01.503 [DEBUG] - 1- All object caches are available. try to send command directly
16:44:01.503 [DEBUG] - no move needed
16:44:01.506 [DEBUG] - 1 - try to update internal cache from query
16:44:01.506 [DEBUG] - 1- All object caches are available. try to send command directly
16:44:01.507 [DEBUG] - no move needed
16:44:01.510 [DEBUG] - 1 - try to update internal cache from query
16:44:01.511 [DEBUG] - 1- All object caches are available. try to send command directly
16:44:01.511 [DEBUG] - no move needed
16:44:01.515 [DEBUG] - 1 - try to update internal cache from query
16:44:01.516 [DEBUG] - 1- All object caches are available. try to send command directly
16:44:01.516 [DEBUG] - no move needed
16:44:01.519 [DEBUG] - 1 - try to update internal cache from query
16:44:01.520 [DEBUG] - 1- All object caches are available. try to send command directly
16:44:01.520 [DEBUG] - no move needed
16:44:01.523 [DEBUG] - 1 - try to update internal cache from query
16:44:01.523 [DEBUG] - 1- All object caches are available. try to send command directly
16:44:01.523 [DEBUG] - no move needed
16:44:01.525 [DEBUG] - 1 - try to update internal cache from query
16:44:01.525 [DEBUG] - 1- All object caches are available. try to send command directly
16:44:01.525 [DEBUG] - no move needed
16:44:01.529 [DEBUG] - 1 - try to update internal cache from query
16:44:01.529 [DEBUG] - 1- All object caches are available. try to send command directly
16:44:01.529 [DEBUG] - no move needed
16:44:01.532 [DEBUG] - 1 - try to update internal cache from query
16:44:01.533 [DEBUG] - 1- All object caches are available. try to send command directly
16:44:01.533 [DEBUG] - no move needed
16:44:01.536 [DEBUG] - 1 - try to update internal cache from query
16:44:01.536 [DEBUG] - 1- All object caches are available. try to send command directly
16:44:01.536 [DEBUG] - no move needed
16:44:01.538 [DEBUG] - 1 - try to update internal cache from query
16:44:01.539 [DEBUG] - 1- All object caches are available. try to send command directly
16:44:01.539 [DEBUG] - no move needed
16:44:01.542 [DEBUG] - 1 - try to update internal cache from query
16:44:01.543 [DEBUG] - 1- All object caches are available. try to send command directly
16:44:01.543 [DEBUG] - no move needed
16:44:01.545 [DEBUG] - 1 - try to update internal cache from query
16:44:01.546 [DEBUG] - 1- All object caches are available. try to send command directly
16:44:01.546 [DEBUG] - no move needed
16:44:01.549 [DEBUG] - 1 - try to update internal cache from query
16:44:01.550 [DEBUG] - 1- All object caches are available. try to send command directly
16:44:01.550 [DEBUG] - no move needed
16:44:01.553 [DEBUG] - 1 - try to update internal cache from query
16:44:01.553 [DEBUG] - 1- All object caches are available. try to send command directly
16:44:01.553 [DEBUG] - no move needed
16:44:01.556 [DEBUG] - 1 - try to update internal cache from query
16:44:01.556 [DEBUG] - 1- All object caches are available. try to send command directly
16:44:01.556 [DEBUG] - no move needed
16:44:01.560 [DEBUG] - 1 - try to update internal cache from query
16:44:01.562 [DEBUG] - 1- All object caches are available. try to send command directly
16:44:01.562 [DEBUG] - no move needed
16:44:01.565 [DEBUG] - 1 - try to update internal cache from query
16:44:01.565 [DEBUG] - 1- All object caches are available. try to send command directly
16:44:01.565 [DEBUG] - no move needed
16:44:01.570 [DEBUG] - 1 - try to update internal cache from query
16:44:01.570 [DEBUG] - 1- All object caches are available. try to send command directly
16:44:01.570 [DEBUG] - no move needed
16:44:01.576 [DEBUG] - 1 - try to update internal cache from query
16:44:01.577 [DEBUG] - 1- Get object (Customer:c_id=26:c_d_id=1:c_w_id=1:c_last=ABLEPRESOUGHT) location from Oracle: 2
16:44:01.577 [DEBUG] - 1- All object caches are available. try to send command directly
16:44:01.577 [DEBUG] - no move needed
16:44:01.578 [DEBUG] - 1- >>>> Sending command [READ_BATCH, [(Customer:c_id=26:c_d_id=1:c_w_id=1:c_last=ABLEPRESOUGHT)]] to actual partition [2]
16:44:01.582 [DEBUG] - 1- Try to update internal cache from command result
16:44:01.582 [DEBUG] - 1- All object caches are available. try to send command directly
16:44:01.582 [DEBUG] - no move needed
16:44:01.582 [DEBUG] - 1- >>>> Sending command [UPDATE, [(Customer:c_id=26:c_d_id=1:c_w_id=1:c_last=ABLEPRESOUGHT)], ch.usi.dslab.lel.dsqldb.DSqlCommandPayload@631006be] to actual partition [2]
16:44:01.587 [DEBUG] - 1- Try to update internal cache from command result
16:44:01.589 [DEBUG] - 1 - try to update internal cache from query
16:44:01.591 [DEBUG] - 1- Get object (History:h_c_id=1:h_c_d_id=1:h_c_w_id=1) location from Oracle: 2
16:44:01.591 [DEBUG] - 1- >>>> Sending command [CREATE, (History:h_c_id=1:h_c_d_id=1:h_c_w_id=1), next = ch.usi.dslab.lel.dsqldb.DSqlCommandPayload@3ad154d3] to actual partition [2]
16:44:01.597 [DEBUG] - 1- Try to update internal cache from command result
16:44:01.597 [DEBUG] - Term-01, Succesful INSERT into history table
16:44:01.597 [DEBUG] - Term-01, +---------------------------- PAYMENT ----------------------------+
16:44:01.597 [DEBUG] - Term-01,  Date: 2016-05-30 16:44:01
16:44:01.597 [DEBUG] - Term-01,  
16:44:01.597 [DEBUG] - Term-01,  Warehouse: 1
16:44:01.597 [DEBUG] - Term-01,    Street:  belrtBXgLRsRfCfw
16:44:01.597 [DEBUG] - Term-01,    Street:  LOqAcUWiquFabopRk
16:44:01.597 [DEBUG] - Term-01,    City:    RvXcxMboEhSxCTSuj   State: QK  Zip: 123456
16:44:01.597 [DEBUG] - Term-01,  
16:44:01.597 [DEBUG] - Term-01,  District:  1
16:44:01.597 [DEBUG] - Term-01,    Street:  GYTmFQjlemVGcdsh
16:44:01.597 [DEBUG] - Term-01,    Street:  SqHkABsmVOweUDLg
16:44:01.597 [DEBUG] - Term-01,    City:    OaRPAHtyurNY   State: YH  Zip: 12345678
16:44:01.597 [DEBUG] - Term-01,  
16:44:01.597 [DEBUG] - Term-01,  Customer:  26
16:44:01.597 [DEBUG] - Term-01,    Name:    JAaqtPimtbXuO OE OUGHTCALLYCALLY
16:44:01.597 [DEBUG] - Term-01,    Street:  ZRHcdfGTm
16:44:01.597 [DEBUG] - Term-01,    Street:  BvjCmmEfFEzrCr
16:44:01.597 [DEBUG] - Term-01,    City:    dpPUVXXRwL   State: XC  Zip: 123456789
16:44:01.597 [DEBUG] - Term-01, 
16:44:01.597 [DEBUG] - Term-01,    Since:   1462954968743
16:44:01.597 [DEBUG] - Term-01,    Credit:  BC
16:44:01.597 [DEBUG] - Term-01,    %Disc:   0.43689998984336853
16:44:01.597 [DEBUG] - Term-01,    Phone:   (732)744-1700
16:44:01.597 [DEBUG] - Term-01,  
16:44:01.597 [DEBUG] - Term-01,  Amount Paid:      2070.04
16:44:01.597 [DEBUG] - Term-01,  Credit Limit:     50000
16:44:01.597 [DEBUG] - Term-01,  New Cust-Balance: -10.0
16:44:01.598 [DEBUG] - Term-01,  Cust-Data: uVFQufIUKBTwxRxeQfBEYrxAGgvstxTAbxcfZJBMTqYXfcdmVC            EbDCgUItrhRzTJFsplRswgCXqIQdZPjRQKRdkazGDiBDtahfTo            SlAEspvDrlCVpmLiuZQyZSwXQXEKAfhYemnvaJljBBiTLzgayz            moswymhvFhhjiYsGtYHoXzocIAKAOYwylTZXvDotASpmOmIkVg
16:44:01.598 [DEBUG] - Term-01, +-----------------------------------------------------------------+
Payment :: 143
transaction-start : 1
update-warehouse : 7
read-warehouse : 3
update-district : 6
read-district : 7
get-customer-by-name : 4
get-customer-by-name : 4
get-customer-by-name : 8
get-customer-by-name : 3
get-customer-by-name : 5
get-customer-by-name : 3
get-customer-by-name : 5
get-customer-by-name : 4
get-customer-by-name : 4
get-customer-by-name : 4
get-customer-by-name : 2
get-customer-by-name : 4
get-customer-by-name : 4
get-customer-by-name : 3
get-customer-by-name : 2
get-customer-by-name : 4
get-customer-by-name : 4
get-customer-by-name : 3
get-customer-by-name : 4
get-customer-by-name : 3
get-customer-by-name : 5
get-customer-by-name : 4
get-customer-by-name : 5
get-customer-by-name : 12
found-customer : 0
update-customer : 5
create-history : 10
transaction-end : 1

16:44:01.598 [DEBUG] - Term-01, 
16:44:01.598 [DEBUG] - Term-01, Terminal 'Term-01' finished after 10 transaction(s).
16:44:01.598 [INFO ] - Term-00, All terminals finished executing 2016-05-30 16:44:01

16:44:01.598 [INFO ] - Term-00, 
16:44:01.598 [INFO ] - Term-00, 
16:44:01.598 [INFO ] - Term-00, Measured tpmC (NewOrders) = 0.0
16:44:01.598 [INFO ] - Term-00, Measured tpmTOTAL = 4049.07
16:44:01.598 [INFO ] - Term-00, Session Start     = 2016-05-30 16:43:58
16:44:01.598 [INFO ] - Term-00, Session End       = 2016-05-30 16:44:01
16:44:01.598 [INFO ] - Term-00, Transaction Count = 10
16:44:01.598 [INFO ] - Term-00, Session finished!
